ST558_2024_HW8_bike data
…
library (dplyr)
Bikeshare <- read_csv ("data//SeoulBikeData.csv")

Rows: 8760 Columns: 14
── Column specification ────────────────────────────────────────────────────────
Delimiter: ","
chr  (4): Date, Seasons, Holiday, Functioning Day
dbl (10): Rented Bike Count, Hour, Temperature(C), Humidity(%), Wind speed (...

ℹ Use `spec()` to retrieve the full column specification for this data.
ℹ Specify the column types or set `show_col_types = FALSE` to quiet this message.

Bikeshare

# A tibble: 8,760 × 14
   Date      `Rented Bike Count`  Hour `Temperature(C)` `Humidity(%)`
   <chr>                   <dbl> <dbl>            <dbl>         <dbl>
 1 1/12/2017                 254     0             -5.2            37
 2 1/12/2017                 204     1             -5.5            38
 3 1/12/2017                 173     2             -6              39
 4 1/12/2017                 107     3             -6.2            40
 5 1/12/2017                  78     4             -6              36
 6 1/12/2017                 100     5             -6.4            37
 7 1/12/2017                 181     6             -6.6            35
 8 1/12/2017                 460     7             -7.4            38
 9 1/12/2017                 930     8             -7.6            37
10 1/12/2017                 490     9             -6.5            27
# ℹ 8,750 more rows
# ℹ 9 more variables: `Wind speed (m/s)` <dbl>, `Visibility (10m)` <dbl>,
#   `Dew point temperature(C)` <dbl>, `Solar Radiation (MJ/m2)` <dbl>,
#   `Rainfall(mm)` <dbl>, `Snowfall (cm)` <dbl>, Seasons <chr>, Holiday <chr>,
#   `Functioning Day` <chr>
…
Now let’s create three different recipe, with the first recipe only considering simple linear regression model. Use the recipe () and bake () to see if it works.

recipe (`Rented Bike Count_Daily` ~., data = bikesharetrain) |>
  step_date (Date, features = "dow") |>
  step_mutate (Date_dow = as.character(Date_dow)) |>
  step_mutate (Days = ifelse(Date_dow %in% c("Sat", "Sun"), "weekend", "weekday")) |>
  step_mutate (Days = factor (Days, levels = c ("weekend", "weekdays"))) |>
  step_normalize (all_numeric(),-all_outcomes()) |>
  step_unknown (Days, new_level = "unknown days") |>
  step_dummy (SeasonsF, HolidayF, Days) |>
  prep (training = bikesharetrain) |>
  bake (bikesharetrain)

# A tibble: 263 × 17
   Date       Rainfall_daily Snowfall_daily TempC_daily Humidity_daily
   <date>              <dbl>          <dbl>       <dbl>          <dbl>
 1 2018-09-03          2.67          -0.183       0.931          1.57 
 2 2018-09-04         -0.316         -0.183       0.901          0.883
 3 2018-09-05         -0.316         -0.183       0.951          0.245
 4 2018-09-09         -0.316         -0.183       0.791         -0.556
 5 2018-09-10         -0.316         -0.183       0.875         -0.515
 6 2018-09-11         -0.316         -0.183       0.757         -0.653
 7 2018-09-13         -0.316         -0.183       0.918          0.277
 8 2018-09-15         -0.298         -0.183       0.898          1.16 
 9 2018-09-16         -0.143         -0.183       0.823          1.62 
10 2018-09-17         -0.307         -0.183       0.822          0.432
# ℹ 253 more rows
# ℹ 12 more variables: Windspeed_daily <dbl>, Visibility_daily <dbl>,
#   DewtempC_daily <dbl>, solarrad_daily <dbl>,
#   `Rented Bike Count_Daily` <dbl>, Date_dow <chr>, SeasonsF_Spring <dbl>,
#   SeasonsF_Summer <dbl>, SeasonsF_Winter <dbl>, HolidayF_No.Holiday <dbl>,
#   Days_weekdays <dbl>, Days_unknown.days <dbl>
…
recipe (`Rented Bike Count_Daily` ~., data = bikesharetrain) |>
  step_date (Date, features = "dow") |>
  step_mutate (Date_dow = as.character(Date_dow)) |>
  step_mutate (Days = ifelse(Date_dow %in% c("Sat", "Sun"), "weekend", "weekday")) |>
  step_mutate (Days = factor (Days, levels = c ("weekend", "weekdays"))) |>
  step_normalize (all_numeric(),-all_outcomes()) |>
  step_unknown (Days, new_level = "unknown days") |>
  step_dummy (SeasonsF, HolidayF, Days) |>
  step_interact (terms = ~ starts_with ("Season") * HolidayF_No.Holiday + 
                          starts_with("Season") * TempC_daily +
                  TempC_daily * Rainfall_daily) |>
  prep (training = bikesharetrain) |>
  bake (bikesharetrain)

# A tibble: 263 × 24
   Date       Rainfall_daily Snowfall_daily TempC_daily Humidity_daily
   <date>              <dbl>          <dbl>       <dbl>          <dbl>
 1 2018-09-03          2.67          -0.183       0.931          1.57 
 2 2018-09-04         -0.316         -0.183       0.901          0.883
 3 2018-09-05         -0.316         -0.183       0.951          0.245
 4 2018-09-09         -0.316         -0.183       0.791         -0.556
 5 2018-09-10         -0.316         -0.183       0.875         -0.515
 6 2018-09-11         -0.316         -0.183       0.757         -0.653
 7 2018-09-13         -0.316         -0.183       0.918          0.277
 8 2018-09-15         -0.298         -0.183       0.898          1.16 
 9 2018-09-16         -0.143         -0.183       0.823          1.62 
10 2018-09-17         -0.307         -0.183       0.822          0.432
# ℹ 253 more rows
# ℹ 19 more variables: Windspeed_daily <dbl>, Visibility_daily <dbl>,
#   DewtempC_daily <dbl>, solarrad_daily <dbl>,
#   `Rented Bike Count_Daily` <dbl>, Date_dow <chr>, SeasonsF_Spring <dbl>,
#   SeasonsF_Summer <dbl>, SeasonsF_Winter <dbl>, HolidayF_No.Holiday <dbl>,
#   Days_weekdays <dbl>, Days_unknown.days <dbl>,
#   SeasonsF_Spring_x_HolidayF_No.Holiday <dbl>, …
…
